{
    "d8253e02-e922-6ce3-43a2-47ff88d2a13f": {
        "paletteKey": "FlexLayoutRow",
        "designerReference": [
            {
                "_key": "componentLabel",
                "_value": "Row",
                "_type": "kv",
                "_attrDef": "p",
                "_useAsLabel": true
            },
            {
                "_key": "style",
                "_value": "",
                "_type": "kv",
                "_attrDef": "p"
            },
            {
                "_key": "class",
                "_value": "",
                "_type": "kv",
                "_attrDef": "p"
            },
            {
                "_key": "fxFlex",
                "_value": "",
                "_type": "kv",
                "_attrDef": "p"
            },
            {
                "_key": "fxLayoutGap",
                "_value": "",
                "_type": "kv",
                "_attrDef": "p"
            },
            {
                "_key": "wrap",
                "_value": "wrap",
                "_type": "a",
                "_attrDef": "p"
            },
            {
                "_key": "layoutAlign",
                "_value": "center",
                "_type": "a",
                "_attrDef": "p"
            },
            {
                "_key": "pLayoutAlign",
                "_value": "center",
                "_type": "a",
                "_attrDef": "p"
            },
            {
                "_key": "[fxShow]",
                "_value": "true",
                "_type": "kv",
                "_attrDef": "p"
            },
            {
                "_key": "[fxHide]",
                "_value": "false",
                "_type": "kv",
                "_attrDef": "p"
            }
        ],
        "1e2e74ae-963c-52b5-688e-58851ee1e904": {
            "paletteKey": "FlexLayoutCol",
            "parentEditorKey": "d8253e02-e922-6ce3-43a2-47ff88d2a13f",
            "designerReference": [
                {
                    "_key": "componentLabel",
                    "_value": "Column",
                    "_type": "kv",
                    "_attrDef": "p",
                    "_useAsLabel": true
                },
                {
                    "_key": "style",
                    "_value": "",
                    "_type": "kv",
                    "_attrDef": "p"
                },
                {
                    "_key": "class",
                    "_value": "",
                    "_type": "kv",
                    "_attrDef": "p"
                },
                {
                    "_key": "fxFlex",
                    "_value": "",
                    "_type": "kv",
                    "_attrDef": "p"
                },
                {
                    "_key": "fxLayoutGap",
                    "_value": "",
                    "_type": "kv",
                    "_attrDef": "p"
                },
                {
                    "_key": "wrap",
                    "_value": "wrap",
                    "_type": "a",
                    "_attrDef": "p"
                },
                {
                    "_key": "layoutAlign",
                    "_value": "center",
                    "_type": "a",
                    "_attrDef": "p"
                },
                {
                    "_key": "pLayoutAlign",
                    "_value": "center",
                    "_type": "a",
                    "_attrDef": "p"
                },
                {
                    "_key": "[fxShow]",
                    "_value": "true",
                    "_type": "kv",
                    "_attrDef": "p"
                },
                {
                    "_key": "[fxHide]",
                    "_value": "false",
                    "_type": "kv",
                    "_attrDef": "p"
                }
            ],
            "241ea22c-aeb1-e34f-82c6-a958001e0073": {
                "paletteKey": "ad-card",
                "parentEditorKey": "1e2e74ae-963c-52b5-688e-58851ee1e904",
                "isAdvancedComponent": true,
                "designerReference": [
                    {
                        "_key": "componentLabel",
                        "_value": "Card",
                        "_type": "kv",
                        "_attrDef": "p",
                        "_useAsLabel": true
                    },
                    {
                        "_key": "style",
                        "_value": "margin-top:50%;",
                        "_type": "kv",
                        "_attrDef": "p"
                    },
                    {
                        "_key": "class",
                        "_value": "",
                        "_type": "kv",
                        "_attrDef": "p"
                    },
                    {
                        "_key": "tabindex",
                        "_value": "",
                        "_type": "kv",
                        "_attrDef": "p"
                    }
                ],
                "5cdeceeb-01c7-9360-91fc-8e4bc0ed1083": {
                    "paletteKey": "ng-card-title",
                    "parentEditorKey": "241ea22c-aeb1-e34f-82c6-a958001e0073",
                    "isAdvancedChildComponent": true,
                    "designerReference": [
                        {
                            "_key": "style",
                            "_value": "",
                            "_type": "kv",
                            "_attrDef": "p"
                        },
                        {
                            "_key": "class",
                            "_value": "",
                            "_type": "kv",
                            "_attrDef": "p"
                        },
                        {
                            "_key": "Title",
                            "_value": "Get Password",
                            "_type": "a",
                            "_attrDef": "p",
                            "_useAsLabel": true
                        },
                        {
                            "_key": "align",
                            "_value": "",
                            "_type": "kv",
                            "_attrDef": "p"
                        }
                    ]
                },
                "9b770d90-5236-56df-7f7c-88a9518150a4": {
                    "paletteKey": "ng-card-content",
                    "parentEditorKey": "241ea22c-aeb1-e34f-82c6-a958001e0073",
                    "isAdvancedChildComponent": true,
                    "designerReference": [
                        {
                            "_key": "style",
                            "_value": "",
                            "_type": "kv",
                            "_attrDef": "p"
                        },
                        {
                            "_key": "class",
                            "_value": "",
                            "_type": "kv",
                            "_attrDef": "p"
                        },
                        {
                            "_key": "align",
                            "_value": "center",
                            "_type": "kv",
                            "_attrDef": "p"
                        }
                    ],
                    "9cc75bed-4cd0-7ddb-aa8e-35f66175a547": {
                        "paletteKey": "FlexLayoutRow",
                        "parentEditorKey": "9b770d90-5236-56df-7f7c-88a9518150a4",
                        "designerReference": [
                            {
                                "_key": "componentLabel",
                                "_value": "Row",
                                "_type": "kv",
                                "_attrDef": "p",
                                "_useAsLabel": true
                            },
                            {
                                "_key": "style",
                                "_value": "",
                                "_type": "kv",
                                "_attrDef": "p"
                            },
                            {
                                "_key": "class",
                                "_value": "",
                                "_type": "kv",
                                "_attrDef": "p"
                            },
                            {
                                "_key": "fxFlex",
                                "_value": "",
                                "_type": "kv",
                                "_attrDef": "p"
                            },
                            {
                                "_key": "fxLayoutGap",
                                "_value": "",
                                "_type": "kv",
                                "_attrDef": "p"
                            },
                            {
                                "_key": "wrap",
                                "_value": "wrap",
                                "_type": "a",
                                "_attrDef": "p"
                            },
                            {
                                "_key": "layoutAlign",
                                "_value": "start",
                                "_type": "a",
                                "_attrDef": "p"
                            },
                            {
                                "_key": "pLayoutAlign",
                                "_value": "stretch",
                                "_type": "a",
                                "_attrDef": "p"
                            },
                            {
                                "_key": "[fxShow]",
                                "_value": "true",
                                "_type": "kv",
                                "_attrDef": "p"
                            },
                            {
                                "_key": "[fxHide]",
                                "_value": "false",
                                "_type": "kv",
                                "_attrDef": "p"
                            }
                        ],
                        "cf86f198-3607-12c3-0747-a0fe92cccf52": {
                            "paletteKey": "NG-Input",
                            "parentEditorKey": "9cc75bed-4cd0-7ddb-aa8e-35f66175a547",
                            "isAdvancedComponent": true,
                            "designerReference": [
                                {
                                    "_key": "style",
                                    "_value": "",
                                    "_type": "kv",
                                    "_attrDef": "p"
                                },
                                {
                                    "_key": "class",
                                    "_value": "",
                                    "_type": "kv",
                                    "_attrDef": "p"
                                },
                                {
                                    "_key": "placeholder",
                                    "_value": "Enter Registered Email-Id ",
                                    "_type": "kv",
                                    "_attrDef": "p",
                                    "_useAsLabel": true
                                },
                                {
                                    "_key": "value",
                                    "_value": "",
                                    "_type": "kv",
                                    "_attrDef": "p"
                                },
                                {
                                    "_key": "[appearance]",
                                    "_value": "'outline'",
                                    "_type": "a",
                                    "_attrDef": "p"
                                },
                                {
                                    "_key": "required",
                                    "_value": "required",
                                    "_type": "a",
                                    "_attrDef": "p"
                                },
                                {
                                    "_key": "[(ngModel)]",
                                    "_value": "email",
                                    "_type": "kv",
                                    "_attrDef": "p"
                                },
                                {
                                    "_key": "color",
                                    "_value": "",
                                    "_type": "kv",
                                    "_attrDef": "p"
                                },
                                {
                                    "_key": "name",
                                    "_value": "",
                                    "_type": "kv",
                                    "_attrDef": "p"
                                },
                                {
                                    "_key": "type",
                                    "_value": "",
                                    "_type": "kv",
                                    "_attrDef": "p"
                                },
                                {
                                    "_key": "[formControl]",
                                    "_value": "",
                                    "_type": "kv",
                                    "_attrDef": "p"
                                },
                                {
                                    "_key": "readonly",
                                    "_value": "",
                                    "_type": "kv",
                                    "_attrDef": "p"
                                },
                                {
                                    "_key": "[disabled]",
                                    "_value": "",
                                    "_type": "kv",
                                    "_attrDef": "p"
                                },
                                {
                                    "_key": "id",
                                    "_value": "",
                                    "_type": "kv",
                                    "_attrDef": "p"
                                },
                                {
                                    "_key": "[floatLabel]",
                                    "_value": "'auto'",
                                    "_type": "kv",
                                    "_attrDef": "p"
                                },
                                {
                                    "_key": "matError",
                                    "_value": [],
                                    "_type": "a",
                                    "_attrDef": "p",
                                    "_visibility": true
                                },
                                {
                                    "_key": "inputHint",
                                    "_value": [],
                                    "_type": "a",
                                    "_attrDef": "p",
                                    "_visibility": true
                                },
                                {
                                    "_key": "Label",
                                    "_value": "",
                                    "_type": "a",
                                    "_attrDef": "p",
                                    "_visibility": true
                                },
                                {
                                    "_key": "Suffix Icon",
                                    "_value": "",
                                    "_type": "a",
                                    "_attrDef": "p",
                                    "_visibility": true
                                },
                                {
                                    "_key": "(suffixIconClick)",
                                    "_value": "",
                                    "_type": "a",
                                    "_attrDef": "p",
                                    "_visibility": true
                                },
                                {
                                    "_key": "Prefix Icon",
                                    "_value": "",
                                    "_type": "a",
                                    "_attrDef": "p",
                                    "_visibility": true
                                },
                                {
                                    "_key": "(prefixIconClick)",
                                    "_value": "",
                                    "_type": "a",
                                    "_attrDef": "p",
                                    "_visibility": true
                                },
                                {
                                    "_key": "Prefix",
                                    "_value": "",
                                    "_type": "a",
                                    "_attrDef": "p",
                                    "_visibility": true
                                },
                                {
                                    "_key": "Suffix",
                                    "_value": "",
                                    "_type": "a",
                                    "_attrDef": "p",
                                    "_visibility": true
                                }
                            ]
                        }
                    },
                    "c99f14f5-abbb-65f3-7157-d8e09ecc8630": {
                        "paletteKey": "FlexLayoutRow",
                        "parentEditorKey": "9b770d90-5236-56df-7f7c-88a9518150a4",
                        "designerReference": [
                            {
                                "_key": "componentLabel",
                                "_value": "Row",
                                "_type": "kv",
                                "_attrDef": "p",
                                "_useAsLabel": true
                            },
                            {
                                "_key": "style",
                                "_value": "",
                                "_type": "kv",
                                "_attrDef": "p"
                            },
                            {
                                "_key": "class",
                                "_value": "",
                                "_type": "kv",
                                "_attrDef": "p"
                            },
                            {
                                "_key": "fxFlex",
                                "_value": "",
                                "_type": "kv",
                                "_attrDef": "p"
                            },
                            {
                                "_key": "fxLayoutGap",
                                "_value": "",
                                "_type": "kv",
                                "_attrDef": "p"
                            },
                            {
                                "_key": "wrap",
                                "_value": "wrap",
                                "_type": "a",
                                "_attrDef": "p"
                            },
                            {
                                "_key": "layoutAlign",
                                "_value": "start",
                                "_type": "a",
                                "_attrDef": "p"
                            },
                            {
                                "_key": "pLayoutAlign",
                                "_value": "stretch",
                                "_type": "a",
                                "_attrDef": "p"
                            },
                            {
                                "_key": "[fxShow]",
                                "_value": "true",
                                "_type": "kv",
                                "_attrDef": "p"
                            },
                            {
                                "_key": "[fxHide]",
                                "_value": "false",
                                "_type": "kv",
                                "_attrDef": "p"
                            }
                        ],
                        "3931d494-e2be-e5d3-ad13-fa6c39ef5351": {
                            "paletteKey": "NG-RaisedButton",
                            "parentEditorKey": "c99f14f5-abbb-65f3-7157-d8e09ecc8630",
                            "designerReference": [
                                {
                                    "_key": "style",
                                    "_value": "",
                                    "_type": "kv",
                                    "_attrDef": "p"
                                },
                                {
                                    "_key": "class",
                                    "_value": "",
                                    "_type": "kv",
                                    "_attrDef": "p"
                                },
                                {
                                    "_key": "buttonname",
                                    "_value": "Send",
                                    "_type": "a",
                                    "_attrDef": "p",
                                    "_useAsLabel": true
                                },
                                {
                                    "_key": "color",
                                    "_value": "primary",
                                    "_type": "kv",
                                    "_attrDef": "p"
                                },
                                {
                                    "_key": "(click)",
                                    "_value": "sendpasswordtoemail(email)",
                                    "_type": "kv",
                                    "_attrDef": "p"
                                },
                                {
                                    "_key": "[disabled]",
                                    "_value": "",
                                    "_type": "kv",
                                    "_attrDef": "p"
                                },
                                {
                                    "_key": "[disableRipple]",
                                    "_value": "",
                                    "_type": "kv",
                                    "_attrDef": "p"
                                },
                                {
                                    "_key": "type",
                                    "_value": "",
                                    "_type": "kv",
                                    "_attrDef": "p"
                                },
                                {
                                    "_key": "routerLink",
                                    "_value": "",
                                    "_type": "kv",
                                    "_attrDef": "p"
                                }
                            ]
                        },
                        "1d5baf89-dadb-7ece-7c51-da46d60f33a5": {
                            "paletteKey": "NG-RaisedButton",
                            "parentEditorKey": "c99f14f5-abbb-65f3-7157-d8e09ecc8630",
                            "designerReference": [
                                {
                                    "_key": "style",
                                    "_value": "margin-left:20px",
                                    "_type": "kv",
                                    "_attrDef": "p"
                                },
                                {
                                    "_key": "class",
                                    "_value": "",
                                    "_type": "kv",
                                    "_attrDef": "p"
                                },
                                {
                                    "_key": "buttonname",
                                    "_value": "Cancel",
                                    "_type": "a",
                                    "_attrDef": "p",
                                    "_useAsLabel": true
                                },
                                {
                                    "_key": "color",
                                    "_value": "primary",
                                    "_type": "kv",
                                    "_attrDef": "p"
                                },
                                {
                                    "_key": "(click)",
                                    "_value": "",
                                    "_type": "kv",
                                    "_attrDef": "p"
                                },
                                {
                                    "_key": "[disabled]",
                                    "_value": "",
                                    "_type": "kv",
                                    "_attrDef": "p"
                                },
                                {
                                    "_key": "[disableRipple]",
                                    "_value": "",
                                    "_type": "kv",
                                    "_attrDef": "p"
                                },
                                {
                                    "_key": "type",
                                    "_value": "",
                                    "_type": "kv",
                                    "_attrDef": "p"
                                },
                                {
                                    "_key": "routerLink",
                                    "_value": "",
                                    "_type": "kv",
                                    "_attrDef": "p"
                                }
                            ]
                        }
                    }
                },
                "25cbce64-65a4-1609-52d3-705940c626ea": {
                    "paletteKey": "ng-card-action",
                    "parentEditorKey": "241ea22c-aeb1-e34f-82c6-a958001e0073",
                    "isAdvancedChildComponent": true,
                    "designerReference": [
                        {
                            "_key": "style",
                            "_value": "",
                            "_type": "kv",
                            "_attrDef": "p"
                        },
                        {
                            "_key": "class",
                            "_value": "",
                            "_type": "kv",
                            "_attrDef": "p"
                        },
                        {
                            "_key": "align",
                            "_value": "",
                            "_type": "kv",
                            "_attrDef": "p"
                        }
                    ]
                }
            }
        }
    }
}
