{
    "appPageId": "c346f633-92fb-eef4-b921-23041170e2d0",
    "appPageName": "images",
    "componentName": "imagesComponent",
    "selectorName": "bh-images",
    "htmlFileName": "images.template.html",
    "tsFileName": "images.component.ts",
    "bkd": {
        "designerHtml": "",
        "designerReference": {},
        "ts": ""
    }
}
